%YAML 1.1
%TAG !u! tag:unity3d.com,2011:
--- !u!78 &1
TagManager:
  serializedVersion: 2
  tags:
  - ground
  - Obstacle
  - BombPickup
  - Enemy
  - ExplosionFX
  - Bullet
  - HealthBar
  - Explodable
  - Platform
  layers:
  - Default
  - TransparentFX
  - Ignore Raycast
  - 
  - Water
  - UI
  - 
  - 
  - Platform
  - Exploadable
  - Fragment
  - 
  - 
  - 
  - 
  - 
  - 
  - 
  - 
  - 
  - 
  - 
  - 
  - 
  - 
  - 
  - 
  - 
  - 
  - 
  - 
  - 
  m_SortingLayers:
  - name: Back
    uniqueID: 1716508713
    locked: 0
  - name: Default
    uniqueID: 0
    locked: 0
  - name: Middle
    uniqueID: 2602429971
    locked: 0
  - name: Front
    uniqueID: 2355491361
    locked: 0
